Get recent trades — market_recent_trades • binance
…
market_recent_trades(symbol)

    Arguments

    symbol
Symbol.

    Value

    A data frame.

    Examples

market_recent_trades("BTCUSDT")
#> # A tibble: 500 × 8
#>    symbol      id price       qty   quote_qty time                is_buyer_maker
#>    <chr>    <int> <chr>       <chr> <chr>     <dttm>              <lgl>         
#>  1 BTCUSDT 352305 37845.7800… 0.06… 2310.030… 2022-02-04 06:10:11 FALSE         
#>  2 BTCUSDT 352306 37845.9000… 0.02… 918.9362… 2022-02-04 06:10:11 FALSE         
#>  3 BTCUSDT 352307 37845.9000… 0.03… 1251.071… 2022-02-04 06:10:11 FALSE         
#>  4 BTCUSDT 352308 37847.2700… 0.04… 1738.325… 2022-02-04 06:10:11 FALSE         
#>  5 BTCUSDT 352309 37843.8300… 0.01… 378.4383… 2022-02-04 06:10:11 TRUE          
#>  6 BTCUSDT 352310 37843.8300… 0.01… 378.4383… 2022-02-04 06:10:11 TRUE          
#>  7 BTCUSDT 352311 37843.8300… 0.00… 99.98339… 2022-02-04 06:10:12 TRUE          
#>  8 BTCUSDT 352312 37858.0000… 0.05… 2120.010… 2022-02-04 06:10:12 FALSE         
#>  9 BTCUSDT 352313 37859.3600… 0.00… 149.8473… 2022-02-04 06:10:12 FALSE         
#> 10 BTCUSDT 352314 37859.3600… 0.05… 2040.165… 2022-02-04 06:10:12 FALSE         
#> # … with 490 more rows, and 1 more variable: is_best_match <lgl>
…
