K-Lines (candlestick bars) for a symbol — market_klines • binance
…
limit
Maximum number of records in result. Default is 500 and maximum
is 1000.

volume
Whether to include volume data in output.

    Value

    A data frame.

    Examples

market_klines("BTCUSDT")
#> # A tibble: 500 × 9
#>    symbol  open_time           close_time            open   high    low  close
#>    <chr>   <dttm>              <dttm>               <dbl>  <dbl>  <dbl>  <dbl>
#>  1 BTCUSDT 2022-02-03 21:55:00 2022-02-03 21:55:59 37010. 37048. 37001. 37019.
#>  2 BTCUSDT 2022-02-03 21:56:00 2022-02-03 21:56:59 37014. 37153. 36960. 36968.
#>  3 BTCUSDT 2022-02-03 21:57:00 2022-02-03 21:57:59 36965. 36990. 36955. 36955.
#>  4 BTCUSDT 2022-02-03 21:58:00 2022-02-03 21:58:59 36948. 36954. 36914. 36934.
#>  5 BTCUSDT 2022-02-03 21:59:00 2022-02-03 21:59:59 36939. 36942. 36915. 36942.
#>  6 BTCUSDT 2022-02-03 22:00:00 2022-02-03 22:00:59 36936. 36956  36920  36924.
#>  7 BTCUSDT 2022-02-03 22:01:00 2022-02-03 22:01:59 36921. 36930. 36885. 36890.
#>  8 BTCUSDT 2022-02-03 22:02:00 2022-02-03 22:02:59 36891. 36893. 36864. 36864.
#>  9 BTCUSDT 2022-02-03 22:03:00 2022-02-03 22:03:59 36865. 36872. 36853. 36862.
#> 10 BTCUSDT 2022-02-03 22:04:00 2022-02-03 22:04:59 36862. 36865. 36859. 36859.
#> # … with 490 more rows, and 2 more variables: volume <dbl>, trades <int>
…
