Get recent trades — market_trades_recent • binance
…
market_trades_recent(symbol)

    Arguments

    symbol
Symbol.

    Value

A data frame.

    Examples

market_trades_recent("BTCUSDT")
#> # A tibble: 500 × 8
#>    symbol       id  price     qty quote_qty time                is_buy…¹ is_be…²
#>    <chr>     <int>  <dbl>   <dbl>     <dbl> <dttm>              <lgl>    <lgl>  
#>  1 BTCUSDT 2045974 22646. 0.0852     1930.  2022-07-19 15:00:48 FALSE    TRUE   
#>  2 BTCUSDT 2045975 22646. 0.0945     2140.  2022-07-19 15:00:48 FALSE    TRUE   
#>  3 BTCUSDT 2045976 22646. 0.0468     1059.  2022-07-19 15:00:49 FALSE    TRUE   
#>  4 BTCUSDT 2045977 22650  0.00222      50.3 2022-07-19 15:00:49 FALSE    TRUE   
#>  5 BTCUSDT 2045978 22652. 0.0132      300.  2022-07-19 15:00:49 TRUE     TRUE   
#>  6 BTCUSDT 2045979 22652. 0.0671     1520.  2022-07-19 15:00:50 FALSE    TRUE   
#>  7 BTCUSDT 2045980 22652. 0.0114      257.  2022-07-19 15:00:51 TRUE     TRUE   
#>  8 BTCUSDT 2045981 22652. 0.001        22.7 2022-07-19 15:00:51 TRUE     TRUE   
#>  9 BTCUSDT 2045982 22652. 0.00390      88.3 2022-07-19 15:00:51 TRUE     TRUE   
#> 10 BTCUSDT 2045983 22653. 0.00386      87.3 2022-07-19 15:00:51 TRUE     TRUE   
#> # … with 490 more rows, and abbreviated variable names ¹​is_buyer_maker,
#> #   ²​is_best_match
#> # ℹ Use `print(n = ...)` to see more rows
…
