Search P2P — p2p_search • binance
…
#>  1 112938708… BUY   ETH   USD   4316.    0.0455         50      150   <tibble […
#>  2 112908393… BUY   ETH   USD   4387.    0.254          20     1000   <tibble […
#>  3 112883126… BUY   ETH   USD   4390.    0.0262         11      110   <tibble […
#>  4 112627973… BUY   ETH   USD   4394.    0.199          30      876.  <tibble […
#>  5 112561293… BUY   ETH   USD   4398.    0.0110         20       48.2 <tibble […
#>  6 112954263… BUY   ETH   USD   4399.    1.16          100     5082.  <tibble […
#>  7 112940051… BUY   ETH   USD   4400.    0.146         100      640.  <tibble […
#>  8 112609669… BUY   ETH   USD   4401.    0.337          50     1000   <tibble […
#>  9 112876008… BUY   ETH   USD   4403.    0.175         100      772.  <tibble […
#> 10 112822947… BUY   ETH   USD   4419.    0.961         100     2000   <tibble […
#> # … with 1 more variable: payment <list>
# Grab all pages.
p2p_search("BUSD", "CAD", side = "BUY")

#> # A tibble: 22 × 10
#>    advert_id  side  asset fiat  price available min_amount max_amount advertiser
#>    <chr>      <chr> <chr> <chr> <dbl>     <dbl>      <dbl>      <dbl> <list>    
#>  1 112961385… BUY   BUSD  CAD    1.3      3590.       1000      2000  <tibble […
#>  2 112951381… BUY   BUSD  CAD    1.31      124.        100       162. <tibble […
#>  3 112784465… BUY   BUSD  CAD    1.31     3645.       1000      3000  <tibble […
#>  4 112948128… BUY   BUSD  CAD    1.31    13424.       3000      5000  <tibble […
#>  5 112950083… BUY   BUSD  CAD    1.32      708.        100       800  <tibble […
#>  6 112957892… BUY   BUSD  CAD    1.32      713.        100       800  <tibble […
#>  7 112937067… BUY   BUSD  CAD    1.32      126.         10       166. <tibble […
#>  8 112928262… BUY   BUSD  CAD    1.32      936.        400      1236. <tibble […
#>  9 112533105… BUY   BUSD  CAD    1.32      377.        100       498. <tibble […
#> 10 112953900… BUY   BUSD  CAD    1.32     1758.        250      2321. <tibble […
#> # … with 12 more rows, and 1 more variable: payment <list>
…
